{
	"page": 1,
	"page_count": 2,
	"page_size": 10,
	"total_items": 20,
	"_embedded": {
		"news": [
			{
				"id": 1,
				"title": "News test 1"
			},
			{
				"id": 2,
				"title": "News test 2"
			}
		]
	}
}